mips_pipeline_tb.vcd
$date
	Tue Dec 09 23:05:41 2025
$end
$version
	Icarus Verilog
$end
$timescale
	1ps
$end
$scope module mips_pipeline_tb $end
$var wire 32 ! instr [31:0] $end
$var wire 32 " pc [31:0] $end
$var wire 32 # r1_val [31:0] $end
$var wire 1 $ wb_RegWrite $end
$var wire 32 % wb_WriteData [31:0] $end
$var wire 5 & wb_WriteReg [4:0] $end
$var parameter 32 ' EXPECTED_R1 $end
$var parameter 32 ( MAX_CYCLES $end
$var parameter 32 ) SHOW_WB_LOG $end
$var reg 1 * clk $end
$var reg 1 + rst $end
$var integer 32 , cycle [31:0] $end
$scope module uut $end
$var wire 1 * clk $end
$var wire 1 + rst $end
$var wire 5 - rt_EX [4:0] $end
$var wire 5 . rt [4:0] $end
$var wire 5 / rs_EX [4:0] $end
$var wire 5 0 rs [4:0] $end
$var wire 5 1 rd_EX [4:0] $end
$var wire 32 2 rd2_MEM [31:0] $end
$var wire 32 3 rd2_ID [31:0] $end
$var wire 32 4 rd2_EX [31:0] $end
$var wire 32 5 rd1_ID [31:0] $end
$var wire 32 6 rd1_EX [31:0] $end
$var wire 5 7 rd [4:0] $end
$var wire 32 8 r1_val [31:0] $end
$var wire 32 9 pc_plus4 [31:0] $end
$var wire 32 : pc_next [31:0] $end
$var wire 32 ; pc_current [31:0] $end
$var wire 32 < pc_ID [31:0] $end
$var wire 6 = opcode [5:0] $end
$var wire 32 > instr_IF [31:0] $end
$var wire 32 ? instr_ID [31:0] $end
$var wire 32 @ imm_ext [31:0] $end
$var wire 32 A imm_EX [31:0] $end
$var wire 16 B imm [15:0] $end
$var wire 1 C Zero_MEM $end
$var wire 1 D Zero_EX $end
$var wire 5 E WriteReg_WB [4:0] $end
$var wire 5 F WriteReg_MEM [4:0] $end
$var wire 5 G WriteReg_EX [4:0] $end
$var wire 32 H WriteData_WB [31:0] $end
$var wire 2 I WBControl_WB [1:0] $end
$var wire 2 J WBControl_MEM [1:0] $end
$var wire 1 K RegWrite_WB $end
$var wire 1 L RegWrite_EX $end
$var wire 1 M RegWrite $end
$var wire 1 N RegDst_EX $end
$var wire 1 O RegDst $end
$var wire 32 P ReadData_MEM [31:0] $end
$var wire 1 Q PCSrc $end
$var wire 1 R MemtoReg_EX $end
$var wire 1 S MemtoReg $end
$var wire 1 T MemWrite_MEM $end
$var wire 1 U MemWrite_EX $end
$var wire 1 V MemWrite $end
$var wire 1 W MemRead_MEM $end
$var wire 1 X MemRead_EX $end
$var wire 1 Y MemRead $end
$var wire 1 Z Branch_MEM $end
$var wire 1 [ Branch_EX $end
$var wire 1 \ Branch $end
$var wire 32 ] ALU_in2 [31:0] $end
$var wire 1 ^ ALUSrc_EX $end
$var wire 1 _ ALUSrc $end
$var wire 32 ` ALUResult_WB [31:0] $end
$var wire 32 a ALUResult_MEM [31:0] $end
$var wire 32 b ALUResult_EX [31:0] $end
$var wire 2 c ALUOp_EX [1:0] $end
$var wire 2 d ALUOp [1:0] $end
$var wire 4 e ALUCtrl_EX [3:0] $end
$scope module ALUCTRL $end
$var wire 6 f funct [5:0] $end
$var wire 2 g ALUOp [1:0] $end
$var reg 4 h ALUCtrl [3:0] $end
$upscope $end
$scope module CU $end
$var wire 6 i opcode [5:0] $end
$var parameter 6 j OPC_BEQ $end
$var parameter 6 k OPC_LW $end
$var parameter 6 l OPC_R $end
$var parameter 6 m OPC_SW $end
$var reg 2 n ALUOp [1:0] $end
$var reg 1 _ ALUSrc $end
$var reg 1 \ Branch $end
$var reg 1 Y MemRead $end
$var reg 1 V MemWrite $end
$var reg 1 S MemtoReg $end
$var reg 1 O RegDst $end
$var reg 1 M RegWrite $end
$upscope $end
$scope module EX_MEM $end
$var wire 5 o WriteReg_in [4:0] $end
$var wire 1 * clk $end
$var wire 32 p rd2_in [31:0] $end
$var wire 1 D Zero_in $end
$var wire 1 L RegWrite_in $end
$var wire 1 R MemtoReg_in $end
$var wire 1 U MemWrite_in $end
$var wire 1 X MemRead_in $end
$var wire 1 [ Branch_in $end
$var wire 32 q ALUResult_in [31:0] $end
$var reg 32 r ALUResult_out [31:0] $end
$var reg 1 Z Branch_out $end
$var reg 1 W MemRead_out $end
$var reg 1 T MemWrite_out $end
$var reg 2 s WBControl_out [1:0] $end
$var reg 5 t WriteReg_out [4:0] $end
$var reg 1 C Zero_out $end
$var reg 32 u rd2_out [31:0] $end
$upscope $end
$scope module ID_EX $end
$var wire 2 v ALUOp_in [1:0] $end
$var wire 1 _ ALUSrc_in $end
$var wire 1 \ Branch_in $end
$var wire 1 Y MemRead_in $end
$var wire 1 V MemWrite_in $end
$var wire 1 S MemtoReg_in $end
$var wire 1 O RegDst_in $end
$var wire 1 M RegWrite_in $end
$var wire 1 * clk $end
$var wire 32 w imm_in [31:0] $end
$var wire 5 x rd_in [4:0] $end
$var wire 5 y rs_in [4:0] $end
$var wire 1 + rst $end
$var wire 5 z rt_in [4:0] $end
$var wire 32 { rd2_in [31:0] $end
$var wire 32 | rd1_in [31:0] $end
$var reg 2 } ALUOp_out [1:0] $end
$var reg 1 ^ ALUSrc_out $end
$var reg 1 [ Branch_out $end
$var reg 1 X MemRead_out $end
$var reg 1 U MemWrite_out $end
$var reg 1 R MemtoReg_out $end
$var reg 1 N RegDst_out $end
$var reg 1 L RegWrite_out $end
$var reg 32 ~ imm_out [31:0] $end
$var reg 32 !" rd1_out [31:0] $end
$var reg 32 "" rd2_out [31:0] $end
$var reg 5 #" rd_out [4:0] $end
$var reg 5 $" rs_out [4:0] $end
$var reg 5 %" rt_out [4:0] $end
$upscope $end
$scope module IF_ID $end
$var wire 1 * clk $end
$var wire 32 &" pc_in [31:0] $end
$var wire 1 + rst $end
$var wire 32 '" instr_in [31:0] $end
$var reg 32 (" instr_out [31:0] $end
$var reg 32 )" pc_out [31:0] $end
$upscope $end
$scope module IMEM $end
$var wire 32 *" Instruction [31:0] $end
$var wire 32 +" Address [31:0] $end
$upscope $end
$scope module MEMS $end
$var wire 32 ," ALUResult [31:0] $end
$var wire 1 Z Branch $end
$var wire 1 W MemRead $end
$var wire 1 T MemWrite $end
$var wire 2 -" WBControl [1:0] $end
$var wire 32 ." WriteData [31:0] $end
$var wire 5 /" WriteReg [4:0] $end
$var wire 1 C Zero $end
$var wire 1 * clk $end
$var wire 32 0" mem_read_data [31:0] $end
$var wire 5 1" WriteReg_out [4:0] $end
$var wire 2 2" WBControl_out [1:0] $end
$var wire 32 3" ReadData [31:0] $end
$var wire 1 Q PCSrc $end
$var wire 32 4" ALUResult_out [31:0] $end
$scope module u_and $end
$var wire 1 Q PCSrc $end
$var wire 1 Z m_ctlout $end
$var wire 1 C zero $end
$upscope $end
$scope module u_dmem $end
$var wire 32 5" Address [31:0] $end
$var wire 1 W MemRead $end
$var wire 1 T MemWrite $end
$var wire 32 6" Write_data [31:0] $end
$var wire 1 * clk $end
$var wire 32 7" Read_data [31:0] $end
$upscope $end
$scope module u_memwb $end
$var wire 32 8" ALU_result_in [31:0] $end
$var wire 32 9" Read_data_in [31:0] $end
$var wire 5 :" Write_reg_in [4:0] $end
$var wire 1 * clk $end
$var wire 2 ;" control_wb_in [1:0] $end
$var reg 32 <" Read_data [31:0] $end
$var reg 32 =" mem_ALU_result [31:0] $end
$var reg 5 >" mem_Write_reg [4:0] $end
$var reg 2 ?" mem_control_wb [1:0] $end
$upscope $end
$upscope $end
$scope module PC $end
$var wire 1 * clk $end
$var wire 32 @" pc_next [31:0] $end
$var wire 1 + rst $end
$var parameter 32 A" RESET_VECTOR $end
$var reg 32 B" pc_out [31:0] $end
$upscope $end
$scope module RF $end
$var wire 1 * clk $end
$var wire 5 C" rd [4:0] $end
$var wire 5 D" rs [4:0] $end
$var wire 1 + rst $end
$var wire 5 E" rt [4:0] $end
$var wire 32 F" writedata [31:0] $end
$var wire 1 K regwrite $end
$var reg 32 G" A_readdat1 [31:0] $end
$var reg 32 H" B_readdat2 [31:0] $end
$var reg 32 I" r1_val [31:0] $end
$var integer 32 J" i [31:0] $end
$upscope $end
$scope module WB_STAGE $end
$var wire 32 K" mem_ALU_result [31:0] $end
$var wire 32 L" mem_Read_data [31:0] $end
$var wire 2 M" mem_control_wb [1:0] $end
$var wire 32 N" WriteData [31:0] $end
$var wire 1 K RegWrite $end
$var wire 1 O" MemtoReg $end
$scope module u_mux $end
$var wire 1 O" MemtoReg $end
$var wire 32 P" mem_ALU_result [31:0] $end
$var wire 32 Q" mem_Read_data [31:0] $end
$var wire 32 R" wb_data [31:0] $end
$upscope $end
$upscope $end
$scope module alu_unit $end
$var wire 32 S" A [31:0] $end
$var wire 4 T" ALUCtrl [3:0] $end
$var wire 32 U" B [31:0] $end
$var wire 1 D Zero $end
$var reg 32 V" Result [31:0] $end
$upscope $end
$upscope $end
$upscope $end
$enddefinitions $end
$comment Show the parameter values. $end
$dumpall
b0 A"
b101011 m
b0 l
b100011 k
b100 j
b1 )
b1010000 (
b1100 '
$end
#0
$dumpvars
bx V"
bx U"
bx T"
bx S"
bx R"
bx Q"
bx P"
xO"
bx N"
bx M"
bx L"
bx K"
bx J"
bx I"
bx H"
bx G"
bx F"
bx E"
bx D"
bx C"
bx B"
bx @"
bx ?"
bx >"
bx ="
bx <"
bx ;"
bx :"
bx 9"
bx 8"
bx 7"
bx 6"
bx 5"
bx 4"
bx 3"
bx 2"
bx 1"
bx 0"
bx /"
bx ."
bx -"
bx ,"
bx +"
bx *"
bx )"
bx ("
bx '"
bx &"
bx %"
bx $"
bx #"
bx ""
bx !"
bx ~
bx }
bx |
bx {
bx z
bx y
bx x
bx w
bx v
bx u
bx t
bx s
bx r
bx q
bx p
bx o
bx n
bx i
bx h
bx g
bx f
bx e
bx d
bx c
bx b
bx a
bx `
x_
x^
bx ]
x\
x[
xZ
xY
xX
xW
xV
xU
xT
xS
xR
xQ
bx P
xO
xN
xM
xL
xK
bx J
bx I
bx H
bx G
bx F
bx E
xD
xC
bx B
bx A
bx @
bx ?
bx >
bx =
bx <
bx ;
bx :
bx 9
bx 8
bx 7
bx 6
bx 5
bx 4
bx 3
bx 2
bx 1
bx 0
bx /
bx .
bx -
b0 ,
1+
0*
bx &
bx %
x$
bx #
bx "
bx !
$end
#5000
b10001100000000010000000000000100 !
b10001100000000010000000000000100 >
b10001100000000010000000000000100 '"
b10001100000000010000000000000100 *"
b10 e
b10 h
b10 T"
b0 G
b0 o
b0 f
b0 ]
b0 U"
1D
b0 b
b0 q
b0 V"
b100 9
b100 &"
b0 "
b0 ;
b0 +"
b0 B"
b0 #
b0 8
b0 I"
b0 c
b0 g
b0 }
0[
0U
0X
0L
0R
0^
0N
b0 1
b0 #"
b0 -
b0 %"
b0 /
b0 $"
b0 A
b0 ~
b0 4
b0 p
b0 ""
b0 6
b0 !"
b0 S"
b100000 J"
1*
#10000
0*
#15000
b100 :
b100 @"
b0 3
b0 {
b0 H"
b0 5
b0 |
b0 G"
b0 d
b0 n
b0 v
0\
0V
1Y
1M
1S
1_
0O
0Q
b0 0"
b0 7"
b0 9"
b100 @
b100 w
b100 B
b0 7
b0 x
b1 .
b1 z
b1 E"
b0 0
b0 y
b0 D"
b100011 =
b100011 i
1C
0Z
0T
0W
b0 J
b0 s
b0 -"
b0 ;"
b0 F
b0 t
b0 /"
b0 :"
b0 2
b0 u
b0 ."
b0 6"
b0 a
b0 r
b0 ,"
b0 5"
b0 8"
b100 <
b100 )"
b10001100000000010000000000000100 ?
b10001100000000010000000000000100 ("
b100000 J"
1*
#20000
0*
0+
#25000
0D
b100 b
b100 q
b100 V"
b10001100000000100000000000001000 !
b10001100000000100000000000001000 >
b10001100000000100000000000001000 '"
b10001100000000100000000000001000 *"
b1000 :
b1000 @"
b100 ]
b100 U"
b1 G
b1 o
b100 f
b0 %
b0 H
b0 F"
b0 N"
b0 R"
0$
0K
0O"
b1000 9
b1000 &"
b100 "
b100 ;
b100 +"
b100 B"
1X
1L
1R
1^
b1 -
b1 %"
b100 A
b100 ~
b0 &
b0 E
b0 1"
b0 >"
b0 C"
b0 `
b0 4"
b0 ="
b0 K"
b0 P"
b0 P
b0 3"
b0 <"
b0 L"
b0 Q"
b0 I
b0 2"
b0 ?"
b0 M"
b1 ,
1*
#30000
0*
#35000
b1 0"
b1 7"
b1 9"
b1000 @
b1000 w
b1000 B
b10 .
b10 z
b10 E"
b10001100000000110000000000001100 !
b10001100000000110000000000001100 >
b10001100000000110000000000001100 '"
b10001100000000110000000000001100 *"
b1100 :
b1100 @"
b10 ,
0C
1W
b11 J
b11 s
b11 -"
b11 ;"
b1 F
b1 t
b1 /"
b1 :"
b100 a
b100 r
b100 ,"
b100 5"
b100 8"
b1000 <
b1000 )"
b10001100000000100000000000001000 ?
b10001100000000100000000000001000 ("
b1100 9
b1100 &"
b1000 "
b1000 ;
b1000 +"
b1000 B"
1*
#40000
0*
#45000
b1000 b
b1000 q
b1000 V"
b0 !
b0 >
b0 '"
b0 *"
b10000 :
b10000 @"
b1100 @
b1100 w
b1100 B
b11 .
b11 z
b11 E"
b10 G
b10 o
b1000 f
b1000 ]
b1000 U"
b1 %
b1 H
b1 F"
b1 N"
b1 R"
1$
1K
1O"
b10000 9
b10000 &"
b1100 "
b1100 ;
b1100 +"
b1100 B"
b1100 <
b1100 )"
b10001100000000110000000000001100 ?
b10001100000000110000000000001100 ("
b10 -
b10 %"
b1000 A
b1000 ~
b1 &
b1 E
b1 1"
b1 >"
b1 C"
b100 `
b100 4"
b100 ="
b100 K"
b100 P"
b1 P
b1 3"
b1 <"
b1 L"
b1 Q"
b11 I
b11 2"
b11 ?"
b11 M"
b11 ,
1*
#50000
0*
#55000
b10 0"
b10 7"
b10 9"
b1100 b
b1100 q
b1100 V"
b10 d
b10 n
b10 v
1O
0Y
1M
0S
0_
b11 G
b11 o
b1100 f
b1100 ]
b1100 U"
b0 @
b0 w
b0 B
b0 .
b0 z
b0 E"
b0 =
b0 i
b10100 :
b10100 @"
b100 ,
b10 F
b10 t
b10 /"
b10 :"
b1000 a
b1000 r
b1000 ,"
b1000 5"
b1000 8"
b11 -
b11 %"
b1100 A
b1100 ~
b10000 <
b10000 )"
b0 ?
b0 ("
b10100 9
b10100 &"
b10000 "
b10000 ;
b10000 +"
b10000 B"
1*
#60000
0*
#65000
1D
b0 b
b0 q
b0 V"
b11 0"
b11 7"
b11 9"
b1000100000100000100000 !
b1000100000100000100000 >
b1000100000100000100000 '"
b1000100000100000100000 *"
b11000 :
b11000 @"
b0 e
b0 h
b0 T"
b0 G
b0 o
b0 f
b0 ]
b0 U"
b10 %
b10 H
b10 F"
b10 N"
b10 R"
b11000 9
b11000 &"
b10100 "
b10100 ;
b10100 +"
b10100 B"
b10100 <
b10100 )"
b1 #
b1 8
b1 I"
b10 c
b10 g
b10 }
0X
0R
0^
1N
b0 -
b0 %"
b0 A
b0 ~
b11 F
b11 t
b11 /"
b11 :"
b1100 a
b1100 r
b1100 ,"
b1100 5"
b1100 8"
b10 &
b10 E
b10 1"
b10 >"
b10 C"
b1000 `
b1000 4"
b1000 ="
b1000 K"
b1000 P"
b10 P
b10 3"
b10 <"
b10 L"
b10 Q"
b101 ,
1*
#70000
0*
#75000
b11 %
b11 H
b11 F"
b11 N"
b11 R"
b0 0"
b0 7"
b0 9"
b10 3
b10 {
b10 H"
b1 5
b1 |
b1 G"
b100000100000 @
b100000100000 w
b100000100000 B
b1 7
b1 x
b10 .
b10 z
b10 E"
b1 0
b1 y
b1 D"
b0 !
b0 >
b0 '"
b0 *"
b11100 :
b11100 @"
b110 ,
b11 &
b11 E
b11 1"
b11 >"
b11 C"
b1100 `
b1100 4"
b1100 ="
b1100 K"
b1100 P"
b11 P
b11 3"
b11 <"
b11 L"
b11 Q"
1C
0W
b10 J
b10 s
b10 -"
b10 ;"
b0 F
b0 t
b0 /"
b0 :"
b0 a
b0 r
b0 ,"
b0 5"
b0 8"
b11000 <
b11000 )"
b1000100000100000100000 ?
b1000100000100000100000 ("
b11100 9
b11100 &"
b11000 "
b11000 ;
b11000 +"
b11000 B"
1*
#80000
0*
#85000
0D
b11 b
b11 q
b11 V"
b0 3
b0 {
b0 H"
b0 5
b0 |
b0 G"
b10 e
b10 h
b10 T"
b100000 :
b100000 @"
b0 @
b0 w
b0 B
b0 7
b0 x
b0 .
b0 z
b0 E"
b0 0
b0 y
b0 D"
b1 G
b1 o
b100000 f
b10 ]
b10 U"
b0 %
b0 H
b0 F"
b0 N"
b0 R"
0O"
b100000 9
b100000 &"
b11100 "
b11100 ;
b11100 +"
b11100 B"
b11100 <
b11100 )"
b0 ?
b0 ("
b1 1
b1 #"
b10 -
b10 %"
b1 /
b1 $"
b100000100000 A
b100000100000 ~
b10 4
b10 p
b10 ""
b1 6
b1 !"
b1 S"
b0 &
b0 E
b0 1"
b0 >"
b0 C"
b0 `
b0 4"
b0 ="
b0 K"
b0 P"
b0 P
b0 3"
b0 <"
b0 L"
b0 Q"
b10 I
b10 2"
b10 ?"
b10 M"
b111 ,
1*
#90000
0*
#95000
b0 e
b0 h
b0 T"
1D
b0 G
b0 o
b0 f
b0 ]
b0 U"
b0 b
b0 q
b0 V"
b1000110000100000100000 !
b1000110000100000100000 >
b1000110000100000100000 '"
b1000110000100000100000 *"
b100100 :
b100100 @"
b1000 ,
0C
b1 F
b1 t
b1 /"
b1 :"
b10 2
b10 u
b10 ."
b10 6"
b11 a
b11 r
b11 ,"
b11 5"
b11 8"
b0 1
b0 #"
b0 -
b0 %"
b0 /
b0 $"
b0 A
b0 ~
b0 4
b0 p
b0 ""
b0 6
b0 !"
b0 S"
b100000 <
b100000 )"
b100100 9
b100100 &"
b100000 "
b100000 ;
b100000 +"
b100000 B"
1*
#100000
0*
#105000
b11 3
b11 {
b11 H"
b11 5
b11 |
b11 G"
b0 !
b0 >
b0 '"
b0 *"
b101000 :
b101000 @"
b100000100000 @
b100000100000 w
b100000100000 B
b1 7
b1 x
b11 .
b11 z
b11 E"
b1 0
b1 y
b1 D"
b11 %
b11 H
b11 F"
b11 N"
b11 R"
b101000 9
b101000 &"
b100100 "
b100100 ;
b100100 +"
b100100 B"
b100100 <
b100100 )"
b1000110000100000100000 ?
b1000110000100000100000 ("
1C
b0 F
b0 t
b0 /"
b0 :"
b0 2
b0 u
b0 ."
b0 6"
b0 a
b0 r
b0 ,"
b0 5"
b0 8"
b1 &
b1 E
b1 1"
b1 >"
b1 C"
b11 `
b11 4"
b11 ="
b11 K"
b11 P"
b1001 ,
1*
#110000
0*
#115000
b10 e
b10 h
b10 T"
0D
b110 b
b110 q
b110 V"
b0 %
b0 H
b0 F"
b0 N"
b0 R"
b1 G
b1 o
b100000 f
b11 ]
b11 U"
b0 3
b0 {
b0 H"
b0 5
b0 |
b0 G"
b0 @
b0 w
b0 B
b0 7
b0 x
b0 .
b0 z
b0 E"
b0 0
b0 y
b0 D"
b101100 :
b101100 @"
b1010 ,
b0 &
b0 E
b0 1"
b0 >"
b0 C"
b0 `
b0 4"
b0 ="
b0 K"
b0 P"
b1 1
b1 #"
b11 -
b11 %"
b1 /
b1 $"
b100000100000 A
b100000100000 ~
b11 4
b11 p
b11 ""
b11 6
b11 !"
b11 S"
b101000 <
b101000 )"
b0 ?
b0 ("
b101100 9
b101100 &"
b101000 "
b101000 ;
b101000 +"
b101000 B"
1*
#120000
0*
#125000
b0 e
b0 h
b0 T"
1D
b1000010000100000100000 !
b1000010000100000100000 >
b1000010000100000100000 '"
b1000010000100000100000 *"
b110000 :
b110000 @"
b0 G
b0 o
b0 f
b0 ]
b0 U"
b0 b
b0 q
b0 V"
b110000 9
b110000 &"
b101100 "
b101100 ;
b101100 +"
b101100 B"
b101100 <
b101100 )"
b11 #
b11 8
b11 I"
b0 1
b0 #"
b0 -
b0 %"
b0 /
b0 $"
b0 A
b0 ~
b0 4
b0 p
b0 ""
b0 6
b0 !"
b0 S"
0C
b1 F
b1 t
b1 /"
b1 :"
b11 2
b11 u
b11 ."
b11 6"
b110 a
b110 r
b110 ,"
b110 5"
b110 8"
b1011 ,
1*
#130000
0*
#135000
b110 3
b110 {
b110 H"
b110 5
b110 |
b110 G"
b110 %
b110 H
b110 F"
b110 N"
b110 R"
b100000100000 @
b100000100000 w
b100000100000 B
b1 7
b1 x
b1 .
b1 z
b1 E"
b1 0
b1 y
b1 D"
bx !
bx >
bx '"
bx *"
b110100 :
b110100 @"
b1100 ,
b1 &
b1 E
b1 1"
b1 >"
b1 C"
b110 `
b110 4"
b110 ="
b110 K"
b110 P"
1C
b0 F
b0 t
b0 /"
b0 :"
b0 2
b0 u
b0 ."
b0 6"
b0 a
b0 r
b0 ,"
b0 5"
b0 8"
b110000 <
b110000 )"
b1000010000100000100000 ?
b1000010000100000100000 ("
b110100 9
b110100 &"
b110000 "
b110000 ;
b110000 +"
b110000 B"
1*
#140000
0*
#145000
bx 3
bx {
bx H"
bx 5
bx |
bx G"
b0 d
b0 n
b0 v
0M
0O
b10 e
b10 h
b10 T"
0D
b1100 b
b1100 q
b1100 V"
b111000 :
b111000 @"
bx @
bx w
bx B
bx 7
bx x
bx .
bx z
bx E"
bx 0
bx y
bx D"
bx =
bx i
b1 G
b1 o
b100000 f
b110 ]
b110 U"
b0 %
b0 H
b0 F"
b0 N"
b0 R"
b111000 9
b111000 &"
b110100 "
b110100 ;
b110100 +"
b110100 B"
b110100 <
b110100 )"
bx ?
bx ("
b1 1
b1 #"
b1 -
b1 %"
b1 /
b1 $"
b100000100000 A
b100000100000 ~
b110 4
b110 p
b110 ""
b110 6
b110 !"
b110 S"
b0 &
b0 E
b0 1"
b0 >"
b0 C"
b0 `
b0 4"
b0 ="
b0 K"
b0 P"
b1101 ,
1*
#150000
0*
#155000
bx G
bx o
bx f
bx ]
bx U"
xD
bx b
bx q
bx V"
b111100 :
b111100 @"
b1110 ,
0C
b1 F
b1 t
b1 /"
b1 :"
b110 2
b110 u
b110 ."
b110 6"
b1100 a
b1100 r
b1100 ,"
b1100 5"
b1100 8"
b0 c
b0 g
b0 }
0L
0N
bx 1
bx #"
bx -
bx %"
bx /
bx $"
bx A
bx ~
bx 4
bx p
bx ""
bx 6
bx !"
bx S"
b110 #
b110 8
b110 I"
b111000 <
b111000 )"
b111100 9
b111100 &"
b111000 "
b111000 ;
b111000 +"
b111000 B"
1*
#160000
0*
#165000
b1000000 :
b1000000 @"
b1100 %
b1100 H
b1100 F"
b1100 N"
b1100 R"
b1000000 9
b1000000 &"
b111100 "
b111100 ;
b111100 +"
b111100 B"
b111100 <
b111100 )"
xC
b0 J
b0 s
b0 -"
b0 ;"
bx F
bx t
bx /"
bx :"
bx 2
bx u
bx ."
bx 6"
bx a
bx r
bx ,"
bx 5"
bx 8"
b1 &
b1 E
b1 1"
b1 >"
b1 C"
b1100 `
b1100 4"
b1100 ="
b1100 K"
b1100 P"
b1111 ,
1*
#170000
0*
#175000
bx %
bx H
bx F"
bx N"
bx R"
0$
0K
b1000100 :
b1000100 @"
b10000 ,
bx &
bx E
bx 1"
bx >"
bx C"
bx `
bx 4"
bx ="
bx K"
bx P"
b0 I
b0 2"
b0 ?"
b0 M"
b1000000 <
b1000000 )"
b1000100 9
b1000100 &"
b1000000 "
b1000000 ;
b1000000 +"
b1000000 B"
1*
#180000
0*
#185000
b1001000 :
b1001000 @"
b1001000 9
b1001000 &"
b1000100 "
b1000100 ;
b1000100 +"
b1000100 B"
b1000100 <
b1000100 )"
b1100 #
b1100 8
b1100 I"
b10001 ,
1*
#190000
0*
#195000
b1001100 :
b1001100 @"
b10010 ,
b1001000 <
b1001000 )"
b1001100 9
b1001100 &"
b1001000 "
b1001000 ;
b1001000 +"
b1001000 B"
1*
#200000
0*
#205000
b1010000 :
b1010000 @"
b1010000 9
b1010000 &"
b1001100 "
b1001100 ;
b1001100 +"
b1001100 B"
b1001100 <
b1001100 )"
b10011 ,
1*
#210000
0*
#215000
b1010100 :
b1010100 @"
b10100 ,
b1010000 <
b1010000 )"
b1010100 9
b1010100 &"
b1010000 "
b1010000 ;
b1010000 +"
b1010000 B"
1*
#220000
0*
#225000
b1011000 :
b1011000 @"
b1011000 9
b1011000 &"
b1010100 "
b1010100 ;
b1010100 +"
b1010100 B"
b1010100 <
b1010100 )"
b10101 ,
1*
#230000
0*
#235000
b1011100 :
b1011100 @"
b10110 ,
b1011000 <
b1011000 )"
b1011100 9
b1011100 &"
b1011000 "
b1011000 ;
b1011000 +"
b1011000 B"
1*
#240000
0*
#245000
b1100000 :
b1100000 @"
b1100000 9
b1100000 &"
b1011100 "
b1011100 ;
b1011100 +"
b1011100 B"
b1011100 <
b1011100 )"
b10111 ,
1*
#250000
0*
#255000
b1100100 :
b1100100 @"
b11000 ,
b1100000 <
b1100000 )"
b1100100 9
b1100100 &"
b1100000 "
b1100000 ;
b1100000 +"
b1100000 B"
1*
#260000
0*
#265000
b1101000 :
b1101000 @"
b1101000 9
b1101000 &"
b1100100 "
b1100100 ;
b1100100 +"
b1100100 B"
b1100100 <
b1100100 )"
b11001 ,
1*
#270000
0*
#275000
b1101100 :
b1101100 @"
b11010 ,
b1101000 <
b1101000 )"
b1101100 9
b1101100 &"
b1101000 "
b1101000 ;
b1101000 +"
b1101000 B"
1*
#280000
0*
#285000
b1110000 :
b1110000 @"
b1110000 9
b1110000 &"
b1101100 "
b1101100 ;
b1101100 +"
b1101100 B"
b1101100 <
b1101100 )"
b11011 ,
1*
#290000
0*
#295000
b1110100 :
b1110100 @"
b11100 ,
b1110000 <
b1110000 )"
b1110100 9
b1110100 &"
b1110000 "
b1110000 ;
b1110000 +"
b1110000 B"
1*
#300000
0*
#305000
b1111000 :
b1111000 @"
b1111000 9
b1111000 &"
b1110100 "
b1110100 ;
b1110100 +"
b1110100 B"
b1110100 <
b1110100 )"
b11101 ,
1*
#310000
0*
#315000
b1111100 :
b1111100 @"
b11110 ,
b1111000 <
b1111000 )"
b1111100 9
b1111100 &"
b1111000 "
b1111000 ;
b1111000 +"
b1111000 B"
1*
#320000
0*
#325000
b10000000 :
b10000000 @"
b10000000 9
b10000000 &"
b1111100 "
b1111100 ;
b1111100 +"
b1111100 B"
b1111100 <
b1111100 )"
b11111 ,
1*
#330000
0*
#335000
b10000100 :
b10000100 @"
b100000 ,
b10000000 <
b10000000 )"
b10000100 9
b10000100 &"
b10000000 "
b10000000 ;
b10000000 +"
b10000000 B"
1*
#340000
0*
#345000
b10001000 :
b10001000 @"
b10001000 9
b10001000 &"
b10000100 "
b10000100 ;
b10000100 +"
b10000100 B"
b10000100 <
b10000100 )"
b100001 ,
1*
#350000
0*
#355000
b10001100 :
b10001100 @"
b100010 ,
b10001000 <
b10001000 )"
b10001100 9
b10001100 &"
b10001000 "
b10001000 ;
b10001000 +"
b10001000 B"
1*
#360000
0*
#365000
b10010000 :
b10010000 @"
b10010000 9
b10010000 &"
b10001100 "
b10001100 ;
b10001100 +"
b10001100 B"
b10001100 <
b10001100 )"
b100011 ,
1*
#370000
0*
#375000
b10010100 :
b10010100 @"
b100100 ,
b10010000 <
b10010000 )"
b10010100 9
b10010100 &"
b10010000 "
b10010000 ;
b10010000 +"
b10010000 B"
1*
#380000
0*
#385000
b10011000 :
b10011000 @"
b10011000 9
b10011000 &"
b10010100 "
b10010100 ;
b10010100 +"
b10010100 B"
b10010100 <
b10010100 )"
b100101 ,
1*
#390000
0*
#395000
b10011100 :
b10011100 @"
b100110 ,
b10011000 <
b10011000 )"
b10011100 9
b10011100 &"
b10011000 "
b10011000 ;
b10011000 +"
b10011000 B"
1*
#400000
0*
#405000
b10100000 :
b10100000 @"
b10100000 9
b10100000 &"
b10011100 "
b10011100 ;
b10011100 +"
b10011100 B"
b10011100 <
b10011100 )"
b100111 ,
1*
#410000
0*
#415000
b10100100 :
b10100100 @"
b101000 ,
b10100000 <
b10100000 )"
b10100100 9
b10100100 &"
b10100000 "
b10100000 ;
b10100000 +"
b10100000 B"
1*
#420000
0*
#425000
b10101000 :
b10101000 @"
b10101000 9
b10101000 &"
b10100100 "
b10100100 ;
b10100100 +"
b10100100 B"
b10100100 <
b10100100 )"
b101001 ,
1*
#430000
0*
#435000
b10101100 :
b10101100 @"
b101010 ,
b10101000 <
b10101000 )"
b10101100 9
b10101100 &"
b10101000 "
b10101000 ;
b10101000 +"
b10101000 B"
1*
#440000
0*
#445000
b10110000 :
b10110000 @"
b10110000 9
b10110000 &"
b10101100 "
b10101100 ;
b10101100 +"
b10101100 B"
b10101100 <
b10101100 )"
b101011 ,
1*
#450000
0*
#455000
b10110100 :
b10110100 @"
b101100 ,
b10110000 <
b10110000 )"
b10110100 9
b10110100 &"
b10110000 "
b10110000 ;
b10110000 +"
b10110000 B"
1*
#460000
0*
#465000
b10111000 :
b10111000 @"
b10111000 9
b10111000 &"
b10110100 "
b10110100 ;
b10110100 +"
b10110100 B"
b10110100 <
b10110100 )"
b101101 ,
1*
#470000
0*
#475000
b10111100 :
b10111100 @"
b101110 ,
b10111000 <
b10111000 )"
b10111100 9
b10111100 &"
b10111000 "
b10111000 ;
b10111000 +"
b10111000 B"
1*
#480000
0*
#485000
b11000000 :
b11000000 @"
b11000000 9
b11000000 &"
b10111100 "
b10111100 ;
b10111100 +"
b10111100 B"
b10111100 <
b10111100 )"
b101111 ,
1*
#490000
0*
#495000
b11000100 :
b11000100 @"
b110000 ,
b11000000 <
b11000000 )"
b11000100 9
b11000100 &"
b11000000 "
b11000000 ;
b11000000 +"
b11000000 B"
1*
#500000
0*
#505000
b11001000 :
b11001000 @"
b11001000 9
b11001000 &"
b11000100 "
b11000100 ;
b11000100 +"
b11000100 B"
b11000100 <
b11000100 )"
b110001 ,
1*
#510000
0*
